C:\Users\lenka\IdeaProjects\GeekTestProject\GeekTestAPI_Trofimova\src\test\java\OwnerPostsTest.java
C:\Users\lenka\IdeaProjects\GeekTestProject\GeekTestAPI_Trofimova\src\test\java\AbstractTest.java
C:\Users\lenka\IdeaProjects\GeekTestProject\GeekTestAPI_Trofimova\src\test\java\LoginTest.java
C:\Users\lenka\IdeaProjects\GeekTestProject\GeekTestAPI_Trofimova\src\test\java\NotOwnerPostsTest.java
